<?xml version="1.0" encoding="utf-8"?>
<!-- Generator: Adobe Illustrator 15.0.2, SVG Export Plug-In . SVG Version: 6.00 Build 0)  -->
<!DOCTYPE svg PUBLIC "-//W3C//DTD SVG 1.1//EN" "http://www.w3.org/Graphics/SVG/1.1/DTD/svg11.dtd">
<svg version="1.1" id="Layer_1" xmlns="http://www.w3.org/2000/svg" xmlns:xlink="http://www.w3.org/1999/xlink" x="0px" y="0px"
	 width="532px" height="223.808px" viewBox="0 0 532 223.808" enable-background="new 0 0 532 223.808" xml:space="preserve">
<g>
	<g>
		<path fill="#F58220" d="M53.511,168.559l15.071-14.949c6.127,6.249,12.498,9.803,20.462,9.803c6.739,0,10.905-3.431,10.905-8.7
			v-0.245c0-5.514-4.901-8.822-13.968-8.822H75.934l-3.308-12.375l19.604-17.767H59.515V96.267h61.877v16.909L100.93,130.82
			c12.253,2.696,22.178,9.435,22.178,24.138v0.245c0,17.399-13.969,28.549-33.083,28.549
			C73.483,183.752,61.966,177.748,53.511,168.559z"/>
	</g>
	<g>
		<path fill="#0080B7" d="M133.67,96.267h68.616v20.83H157.44v14.581h40.557v19.727H157.44v30.632H133.67V96.267z"/>
	</g>
	<g>
		<path fill="#0080B7" d="M82.129,47.193l-0.52,32.1l-4.65-0.004l0.332-6.669l-7.012,0.002l-2.885,6.672l-4.234-0.001l14.521-32.1
			H82.129z M77.483,69.048l0.773-14.655l-6.446,14.646L77.483,69.048z"/>
		<path fill="#0080B7" d="M95.772,47.194l-1.935,22.581l8.852-22.579l4.432-0.003l-13.518,32.1h-4.232l1.742-32.1L95.772,47.194z"/>
		<path fill="#0080B7" d="M120.074,47.193l-0.521,32.1l-4.648-0.004l0.332-6.669l-7.013,0.002l-2.885,6.672l-4.233-0.001l14.52-32.1
			H120.074z M115.428,69.048l0.773-14.655l-6.446,14.646L115.428,69.048z"/>
		<path fill="#0080B7" d="M135.076,47.193l1.63,20.324l5.001-20.324h4.23l-7.762,32.1l-4.467,0.005l-1.628-20.324l-4.983,20.319
			h-4.23l7.762-32.1H135.076z"/>
		<path fill="#0080B7" d="M165.26,47.193l-16.872,28.306h9.198l-0.918,3.794H141.49l16.919-28.306h-9.072l0.917-3.794H165.26z"/>
		<path fill="#0080B7" d="M178.211,47.193l-0.521,32.1l-4.648-0.004l0.332-6.669l-7.013,0.002l-2.885,6.672l-4.233-0.001l14.52-32.1
			H178.211z M173.564,69.048l0.773-14.655l-6.446,14.646L173.564,69.048z"/>
	</g>
	<polygon fill="#F58220" points="187.592,79.73 187.592,46.684 204.115,63.207 	"/>
</g>
<g>
	<path fill="#0080B7" d="M282.96,122.503h-14.475v15.002h-10.354v-39.62h26.36v9.139h-16.006v6.339h14.475V122.503z"/>
	<path fill="#0080B7" d="M312.437,121.71h-14.791v6.656h16.271v9.139h-26.625v-39.62h26.625v9.139h-16.271v5.547h14.791V121.71z"/>
	<path fill="#0080B7" d="M317.456,97.886h15.161c10.513,0,13.154,4.86,13.154,11.411c0,3.064-1.585,5.705-3.909,7.237
		c2.8,1.268,5.019,4.12,5.019,8.663c0,6.92-2.959,12.309-14.052,12.309h-15.373V97.886z M331.825,106.391h-4.015v6.867h4.015
		c2.482,0,3.063-1.69,3.063-3.434S334.308,106.391,331.825,106.391z M332.406,120.865h-4.596V129h4.596
		c2.642,0,3.645-1.638,3.645-4.068C336.051,122.45,334.995,120.865,332.406,120.865z"/>
	<path fill="#0080B7" d="M360.035,137.505h-10.354v-39.62h14.633c11.094,0,14.58,4.913,14.58,12.678c0,4.86-1.32,8.452-5.177,10.565
		l7.132,16.376h-11.991l-5.178-14.421h-3.645V137.505z M360.035,114.79h4.438c2.853,0,3.381-2.324,3.381-4.173
		c0-1.902-0.688-4.121-3.381-4.121h-4.438V114.79z"/>
	<path fill="#0080B7" d="M407.95,121.71h-14.791v6.656h16.271v9.139h-26.625v-39.62h26.625v9.139h-16.271v5.547h14.791V121.71z"/>
	<path fill="#0080B7" d="M423.324,137.505H412.97v-39.62h14.633c11.094,0,14.58,4.913,14.58,12.678c0,4.86-1.32,8.452-5.177,10.565
		l7.132,16.376h-11.991l-5.178-14.421h-3.645V137.505z M423.324,114.79h4.438c2.853,0,3.381-2.324,3.381-4.173
		c0-1.902-0.688-4.121-3.381-4.121h-4.438V114.79z"/>
	<path fill="#0080B7" d="M461.729,97.041c13.101,0,16.06,8.135,16.06,20.655c0,12.52-2.959,20.655-16.06,20.655
		s-16.059-8.135-16.059-20.655C445.671,105.176,448.629,97.041,461.729,97.041z M461.729,106.232c-4.173,0-5.547,2.641-5.547,11.463
		c0,8.822,1.374,11.463,5.547,11.463c4.174,0,5.547-2.641,5.547-11.463C467.276,108.874,465.903,106.232,461.729,106.232z"/>
</g>
<g>
	<path fill="#0080B7" d="M277.028,55.404v33.8h-11.481v-33.8h-10.31V45.27h32.101v10.134H277.028z"/>
	<path fill="#0080B7" d="M301.574,89.204h-11.481V45.27h16.227c12.302,0,16.168,5.448,16.168,14.059
		c0,5.389-1.465,9.373-5.741,11.716l7.908,18.159h-13.297l-5.741-15.992h-4.042V89.204z M301.574,64.015h4.921
		c3.163,0,3.749-2.577,3.749-4.627c0-2.109-0.762-4.569-3.749-4.569h-4.921V64.015z"/>
	<path fill="#0080B7" d="M354.707,71.689h-16.402v7.381h18.043v10.134h-29.524V45.27h29.524v10.134h-18.043v6.151h16.402V71.689z"/>
	<path fill="#0080B7" d="M391.79,75.321c0,11.13-7.029,14.821-17.69,14.821c-5.741,0-11.13-1.055-14.41-3.046l0.117-10.72
		c2.577,1.464,7.674,3.339,13.297,3.339c5.331,0,7.205-1.406,7.205-3.808c0-2.694-1.815-3.515-5.272-3.983
		c-10.837-1.289-15.347-3.983-15.347-13.59c0-8.611,5.271-14,17.28-14c6.15,0,10.72,1.171,12.946,2.285l-0.176,10.485
		c-2.812-1.347-7.791-2.343-11.892-2.343c-4.452,0-6.736,1.23-6.736,3.515c0,2.578,1.933,3.281,5.506,3.691
		C386.752,63.195,391.79,65.421,391.79,75.321z"/>
	<path fill="#0080B7" d="M405.791,89.204V45.27h14.996c15.406,0,19.097,9.548,19.097,21.967c0,12.477-3.69,21.967-19.097,21.967
		H405.791z M417.272,79.187h3.573c5.741,0,7.264-4.042,7.264-11.95c0-7.85-1.522-11.95-7.264-11.95h-3.573V79.187z"/>
	<path fill="#0080B7" d="M471.519,71.689h-16.402v7.381h18.043v10.134h-29.524V45.27h29.524v10.134h-18.043v6.151h16.402V71.689z"/>
</g>
<line fill="none" stroke="#F58220" stroke-miterlimit="10" x1="251.774" y1="153.124" x2="478.252" y2="153.124"/>
<g>
	<path fill="#0080B7" d="M257.086,166.693h2.162l2.891,8.671l2.912-8.671h2.185v16.376h-2.25l-0.008-9.962l-2.271,7.039
		l-1.123,0.003l-2.206-7.038l-0.042,9.958h-2.25V166.693z"/>
	<path fill="#0080B7" d="M285.903,179.389c0,1.073-0.354,1.978-1.06,2.714c-0.706,0.735-1.566,1.104-2.581,1.104
		c-1.016,0-1.876-0.368-2.582-1.104c-0.706-0.736-1.059-1.641-1.059-2.714v-12.696h2.25v12.466c0,0.552,0.125,0.974,0.375,1.266
		c0.25,0.291,0.589,0.437,1.016,0.437c0.927,0,1.39-0.567,1.39-1.702v-12.466h2.251V179.389z"/>
	<path fill="#0080B7" d="M297.2,166.693l2.171-0.003l3.402,9.865l0.031-9.862h2.251v16.376h-2.118l-3.442-9.844l-0.044,9.844H297.2
		V166.693z"/>
	<path fill="#0080B7" d="M316.418,166.693h2.251v16.376h-2.251V166.693z"/>
	<path fill="#0080B7" d="M337.27,179.412c0,1.013-0.35,1.897-1.048,2.656c-0.699,0.76-1.541,1.139-2.526,1.139
		c-1.015,0-1.887-0.303-2.615-0.908c-0.728-0.605-1.092-1.591-1.092-2.955v-9.017c0-1.073,0.338-1.97,1.015-2.69
		s1.56-1.081,2.648-1.081c1.029,0,1.89,0.367,2.581,1.104s1.037,1.672,1.037,2.807v0.92h-2.25v-0.782
		c0-0.476-0.129-0.878-0.387-1.208c-0.258-0.329-0.592-0.494-1.004-0.494c-0.515,0-0.875,0.165-1.081,0.494
		c-0.206,0.33-0.309,0.802-0.309,1.415v8.372c0,0.521,0.103,0.932,0.309,1.23s0.559,0.448,1.06,0.448
		c0.367,0,0.694-0.13,0.981-0.391s0.431-0.683,0.431-1.266V178.4h2.25V179.412z"/>
	<path fill="#0080B7" d="M348.435,166.693h2.251v16.376h-2.251V166.693z"/>
	<path fill="#0080B7" d="M362.138,166.693h3.376c0.646,0,1.198,0.089,1.654,0.265c0.456,0.177,0.875,0.472,1.258,0.886
		s0.647,0.908,0.794,1.483c0.147,0.574,0.221,1.36,0.221,2.357c0,0.797-0.04,1.434-0.121,1.909c-0.081,0.475-0.269,0.962-0.562,1.46
		c-0.294,0.499-0.702,0.894-1.225,1.185c-0.522,0.292-1.188,0.438-1.997,0.438h-1.147v6.394h-2.25V166.693z M364.388,174.467h1.081
		c0.824,0,1.339-0.211,1.545-0.633s0.309-1.131,0.309-2.128c0-0.98-0.096-1.693-0.286-2.139c-0.191-0.444-0.685-0.667-1.479-0.667
		h-1.17V174.467z"/>
	<path fill="#0080B7" d="M382.879,166.693h1.875l3.509,16.376l-2.26,0.002l-0.664-3.519h-3.045l-0.664,3.519l-2.26-0.002
		L382.879,166.693z M383.827,171.445l-1.149,5.896h2.256L383.827,171.445z"/>
	<path fill="#0080B7" d="M398.634,166.693h2.25v14.03h4.457v2.346h-6.707V166.693z"/>
	<path fill="#0080B7" d="M416.131,166.693h2.251v16.376h-2.251V166.693z"/>
	<path fill="#0080B7" d="M429.834,166.693h3.331c1.266,0,2.24,0.372,2.924,1.115c0.685,0.744,1.026,1.783,1.026,3.117v7.658
		c0,1.488-0.357,2.607-1.07,3.358c-0.714,0.751-1.739,1.127-3.078,1.127h-3.133V166.693z M432.084,180.861h1.037
		c0.633,0,1.081-0.161,1.346-0.483c0.266-0.321,0.397-0.843,0.397-1.563v-7.889c0-0.675-0.132-1.181-0.397-1.519
		c-0.265-0.337-0.713-0.506-1.346-0.506h-1.037V180.861z"/>
	<path fill="#0080B7" d="M450.994,166.693h1.875l3.509,16.376l-2.26,0.002l-0.664-3.519h-3.045l-0.664,3.519l-2.26-0.002
		L450.994,166.693z M451.942,171.445l-1.149,5.896h2.256L451.942,171.445z"/>
	<path fill="#0080B7" d="M466.749,166.693h3.331c1.266,0,2.24,0.372,2.924,1.115c0.685,0.744,1.026,1.783,1.026,3.117v7.658
		c0,1.488-0.357,2.607-1.07,3.358c-0.714,0.751-1.739,1.127-3.078,1.127h-3.133V166.693z M468.999,180.861h1.037
		c0.633,0,1.081-0.161,1.346-0.483c0.266-0.321,0.397-0.843,0.397-1.563v-7.889c0-0.675-0.132-1.181-0.397-1.519
		c-0.265-0.337-0.713-0.506-1.346-0.506h-1.037V180.861z"/>
</g>
<line fill="none" stroke="#0080B7" stroke-miterlimit="10" x1="230" y1="42.312" x2="230" y2="190.808"/>
</svg>
