20170016605958000000115620201701192017010509000
20170016605958000000115620201701192017010509010
20170013339771000000051183201701192017010509000
20170013339771000000051183201701192017010509010
20170013339786000000046251201701192017010509000
20170013339786000000046251201701192017010509010
66170070048498000000139004201701112017010509000
66170070048498000000139004201701112017010509010
66170070048518000000138370201701122017010509000
66170070048518000000138370201701122017010509010
66170070048519000000110696201701122017010509000
66170070048519000000110696201701122017010509010
66170070048516000000002113201701122017010509000
66170070048516000000002113201701122017010509010
66170070048515000000008714201701122017010509000
66170070048515000000008714201701122017010509010
66170070048521000000062319201701122017010509000
66170070048521000000062319201701122017010509010
66170070048501000000004226201701112017010509000
66170070048501000000004226201701112017010509010
66170070048499000000017428201701112017010509000
66170070048499000000017428201701112017010509010
66170070048517000000027674201701122017010509000
66170070048517000000027674201701122017010509010
20160037029009000000045322201701132017010509000
20160037029009000000045322201701132017010509010
20160037121414000000072961201701132017010509000
20160037121414000000072961201701132017010509010
66170070048522000000008714201701122017010509000
66170070048522000000008714201701122017010509010
66170070048523000000087670201701122017010509000
66170070048523000000087670201701122017010509010
66170070048524000000042198201701122017010509000
66170070048524000000042198201701122017010509010
66170070048525000000027674201701122017010509000
66170070048525000000027674201701122017010509010
66170070048528000000002113201701122017010509000
66170070048528000000002113201701122017010509010
66170070048527000000008714201701122017010509000
66170070048527000000008714201701122017010509010
66170070048529000000110696201701122017010509000
66170070048529000000110696201701122017010509010
66170070048530000000055348201701122017010509000
66170070048530000000055348201701122017010509010
66170070048531000000297916201701122017010509000
66170070048531000000297916201701122017010509010
66170070048532000000122314201701122017010509000
66170070048532000000122314201701122017010509010
66170070048533000000027674201701122017010509000
66170070048533000000027674201701122017010509010
66170070048503000000048852201701112017010509000
66170070048503000000048852201701112017010509010
66170070048441000000122314201701082017010509000
66170070048441000000122314201701082017010509010
66170070048444000000275206201701082017010509000
66170070048444000000275206201701082017010509010
66170070048535000000027674201701122017010509000
66170070048535000000027674201701122017010509010
66170070048538000000027674201701122017010509000
66170070048538000000027674201701122017010509010
66170070048537000000122314201701122017010509000
66170070048537000000122314201701122017010509010
20160037125888000000040992201701132017010509000
20160037125888000000040992201701132017010509010
20160037136340000000069800201701132017010509000
20160037136340000000069800201701132017010509010
20170016229568000001538552201701192017010509000
20170016229568000001538552201701192017010509010
20170016236862000000429265201701192017010509000
20170016236862000000429265201701192017010509010
20170013032351000000025894201701192017010509000
20170013032351000000025894201701192017010509010
20160031382703000000046534201702282017010509000
20160031382703000000046534201702282017010509010
20160051382703000000044339201702282017010509000
20160051382703000000044339201702282017010509010
20160061382703000000043900201702282017010509000
20160061382703000000043900201702282017010509010
20170013220066000000095393201701192017010509000
20170013220066000000095393201701192017010509010
20170013214490000000030746201701192017010509000
20170013214490000000030746201701192017010509010
20170013237804000000032407201701192017010509000
20170013237804000000032407201701192017010509010
20170013203663000000032582201701192017010509000
20170013203663000000032582201701192017010509010
20160037102405000000056008201701132017010509000
20160037102405000000056008201701132017010509010
20160137082826000000132948201701142017010509000
20160137082826000000132948201701142017010509010
20170013407521000000009596000005022017010509000
20170013407521000000009596000005022017010509010
20170023407521000000009596000005022017010509000
20170023407521000000009596000005022017010509010
20170033407521000000009596000005022017010509000
20170033407521000000009596000005022017010509010
20170043407521000000009596000005022017010509000
20170043407521000000009596000005022017010509010
20160037130973000000097393201701132017010509000
20160037130973000000097393201701132017010509010
20160037123540000000049006201701132017010509000
20160037123540000000049006201701132017010509010
80010322802353000000039610201702042017010509000
80010322802353000000039610201702042017010509010
80010393798161000000006090201702042017010509000
80010393798161000000006090201702042017010509010
80010334308967000000010155201702042017010509000
80010334308967000000010155201702042017010509010
80010327704829000000031485201702042017010509000
80010327704829000000031485201702042017010509010
80010311023979000000012695201702042017010509000
80010311023979000000012695201702042017010509010
80010310919207000000031485201702042017010509000
80010310919207000000031485201702042017010509010
80010324977384000000031485201702042017010509000
80010324977384000000031485201702042017010509010
80010327409668000000031485201702042017010509000
80010327409668000000031485201702042017010509010
80010334405915000000039610201702042017010509000
80010334405915000000039610201702042017010509010
80010339212766000000031485201702042017010509000
80010339212766000000031485201702042017010509010
20170013453355000000050881201701192017010509000
20170013453355000000050881201701192017010509010
20160037100946000000078914201701132017010509000
20160037100946000000078914201701132017010509010
80010316766609000000018280201702042017010509000
80010316766609000000018280201702042017010509010
80010321304216000000039610201702042017010509000
80010321304216000000039610201702042017010509010
80010393149582000000006090201702042017010509000
80010393149582000000006090201702042017010509010
80010304182434000000006090201702042017010509000
80010304182434000000006090201702042017010509010
80010321019420000000031485201702042017010509000
80010321019420000000031485201702042017010509010
80010326599820000000031485201702042017010509000
80010326599820000000031485201702042017010509010
80010313361894000000031485201702042017010509000
80010313361894000000031485201702042017010509010
80010310233665000000012695201702042017010509000
80010310233665000000012695201702042017010509010
80010393386454000000006090201702042017010509000
80010393386454000000006090201702042017010509010
80010339599343000000031485201702042017010509000
80010339599343000000031485201702042017010509010
80010320051105000000031485201702042017010509000
80010320051105000000031485201702042017010509010
80010335426686000000031485201702042017010509000
80010335426686000000031485201702042017010509010
80010334584756000000010155201702042017010509000
80010334584756000000010155201702042017010509010
80010330251999000000043880201702042017010509000
80010330251999000000043880201702042017010509010
80010314151296000000031485201702042017010509000
80010314151296000000031485201702042017010509010
80010334472825000000018280201702042017010509000
80010334472825000000018280201702042017010509010
80010325971766000000031485201702042017010509000
80010325971766000000031485201702042017010509010
80010305755157000000012695201702032017010509000
80010305755157000000012695201702032017010509010
20160037120816000000100694201701132017010509000
20160037120816000000100694201701132017010509010
20160037108653000000049240201701132017010509000
20160037108653000000049240201701132017010509010
20170012925750000000023726201701192017010509000
20170012925750000000023726201701192017010509010
20160037114888000000076133201701132017010509000
20160037114888000000076133201701132017010509010
80010314497960000000039610201702042017010509000
80010314497960000000039610201702042017010509010
80010324366510000000031485201702042017010509000
80010324366510000000031485201702042017010509010
80010304983244000000020820201702042017010509000
80010304983244000000020820201702042017010509010
80010323771138000000031485201702042017010509000
80010323771138000000031485201702042017010509010
80010316929922000000039610201702042017010509000
80010316929922000000039610201702042017010509010
80010327032458000000039610201702042017010509000
80010327032458000000039610201702042017010509010
80010304419799000000006090201702042017010509000
80010304419799000000006090201702042017010509010
20170013000304000000128802201701192017010509000
20170013000304000000128802201701192017010509010
20170013000319000000041050201701192017010509000
20170013000319000000041050201701192017010509010
20170013000323000000040615201701192017010509000
20170013000323000000040615201701192017010509010
20170013000338000000040615201701192017010509000
20170013000338000000040615201701192017010509010
20170013000342000000040615201701192017010509000
20170013000342000000040615201701192017010509010
20170013000357000000040615201701192017010509000
20170013000357000000040615201701192017010509010
20170013000361000000040615201701192017010509000
20170013000361000000040615201701192017010509010
20170013000290000000130832201701192017010509000
20170013000290000000130832201701192017010509010
20170013000285000000055762201701192017010509000
20170013000285000000055762201701192017010509010
20170013000270000000037804201701192017010509000
20170013000270000000037804201701192017010509010
20170013000213000000044416201701192017010509000
20170013000213000000044416201701192017010509010
20170013000228000000043873201701192017010509000
20170013000228000000043873201701192017010509010
20170013000232000000040670201701192017010509000
20170013000232000000040670201701192017010509010
20170013000247000000040670201701192017010509000
20170013000247000000040670201701192017010509010
20170013000251000000040778201701192017010509000
20170013000251000000040778201701192017010509010
20170013000266000000043330201701192017010509000
20170013000266000000043330201701192017010509010
20170012346660000000030524201701192017010509000
20170012346660000000030524201701192017010509010
20170016414618000000048138201701192017010509000
20170016414618000000048138201701192017010509010
20170016642780000000028649201701192017010509000
20170016642780000000028649201701192017010509010
20170012804765000000030746201701192017010509000
20170012804765000000030746201701192017010509010
20160062101190000000069840000000032017010509000
20160062101190000000069840000000032017010509010
80010333850228000000039610201702042017010509000
80010333850228000000039610201702042017010509010
80010310107231000000035755201702042017010509000
80010310107231000000035755201702042017010509010
80010325445092000000031485201702042017010509000
80010325445092000000031485201702042017010509010
80010304606473000000006090201702042017010509000
80010304606473000000006090201702042017010509010
80010314744516000000039610201702042017010509000
80010314744516000000039610201702042017010509010
80010332676234000000031485201702032017010509000
80010332676234000000031485201702032017010509010
80010393560308000000006090201702042017010509000
80010393560308000000006090201702042017010509010
80010305596808000000006090201702042017010509000
80010305596808000000006090201702042017010509010
80010321955062000000031485201702042017010509000
80010321955062000000031485201702042017010509010
80010317023149000000010155201702042017010509000
80010317023149000000010155201702042017010509010
80010311849579000000012695201702042017010509000
80010311849579000000012695201702042017010509010
80010323542780000000031485201702022017010509000
80010323542780000000031485201702022017010509010
80010307732608000000006090201702042017010509000
80010307732608000000006090201702042017010509010
80010341472899000000018280201702042017010509000
80010341472899000000018280201702042017010509010
80010306900607000000006090201702042017010509000
80010306900607000000006090201702042017010509010
80010304576083000000006090201702042017010509000
80010304576083000000006090201702042017010509010
80010310369654000000039610201702042017010509000
80010310369654000000039610201702042017010509010
80010316788626000000031485201701052017010509000
80010316788626000000031485201701052017010509010
80010336900421000000039610201702042017010509000
80010336900421000000039610201702042017010509010
80010329022723000000031485201702042017010509000
80010329022723000000031485201702042017010509010
80010393179526000000012695201702042017010509000
80010393179526000000012695201702042017010509010
80010393561768000000006090201702042017010509000
80010393561768000000006090201702042017010509010
80010325680137000000039610201702042017010509000
80010325680137000000039610201702042017010509010
80010305572497000000006090201702042017010509000
80010305572497000000006090201702042017010509010
80010320396436000000010155201702042017010509000
80010320396436000000010155201702042017010509010
80010303920061000000006090201702042017010509000
80010303920061000000006090201702042017010509010
80010334019281000000031485201702042017010509000
80010334019281000000031485201702042017010509010
80010324821060000000031485201702042017010509000
80010324821060000000031485201702042017010509010
80010310669841000000012695201702042017010509000
80010310669841000000012695201702042017010509010
80010316930937000000031485201702042017010509000
80010316930937000000031485201702042017010509010
80010304516493000000006090201702042017010509000
80010304516493000000006090201702042017010509010
80010316198731000000039610201702042017010509000
80010316198731000000039610201702042017010509010
80010392057100000000006090201702042017010509000
80010392057100000000006090201702042017010509010
80010337384007000000039610201702042017010509000
80010337384007000000039610201702042017010509010
80010334259153000000039610201702042017010509000
80010334259153000000039610201702042017010509010
80010337702498000000043880201702042017010509000
80010337702498000000043880201702042017010509010
80010339065507000000018280201702042017010509000
80010339065507000000018280201702042017010509010
80010325304681000000031485201702042017010509000
80010325304681000000031485201702042017010509010
80010314682623000000039610201702042017010509000
80010314682623000000039610201702042017010509010
80010333895432000000031485201702042017010509000
80010333895432000000031485201702042017010509010
80010338466063000000018280201702042017010509000
80010338466063000000018280201702042017010509010
80010329862514000000031485201702042017010509000
80010329862514000000031485201702042017010509010
80010304572067000000006090201702042017010509000
80010304572067000000006090201702042017010509010
80010324949292000000035755201702042017010509000
80010324949292000000035755201702042017010509010
80010313677625000000039610201702032017010509000
80010313677625000000039610201702032017010509010
80010321452623000000039610201702042017010509000
80010321452623000000039610201702042017010509010
80010310669277000000031485201702042017010509000
80010310669277000000031485201702042017010509010
80010340774772000000031485201702042017010509000
80010340774772000000031485201702042017010509010
80010313501359000000039610201702042017010509000
80010313501359000000039610201702042017010509010
80010327022570000000031485201702042017010509000
80010327022570000000031485201702042017010509010
80010330441000000000031485201702042017010509000
80010330441000000000031485201702042017010509010
80010338695312000000031485201702042017010509000
80010338695312000000031485201702042017010509010
80010392516990000000031485201702042017010509000
80010392516990000000031485201702042017010509010
80010305919372000000006090201702042017010509000
80010305919372000000006090201702042017010509010
80010318321067000000035755201702042017010509000
80010318321067000000035755201702042017010509010
80010312849985000000031485201702042017010509000
80010312849985000000031485201702042017010509010
80010393871829000000018280201702042017010509000
80010393871829000000018280201702042017010509010
80010312296350000000010155201702042017010509000
80010312296350000000010155201702042017010509010
80010326259592000000043880201702042017010509000
80010326259592000000043880201702042017010509010
80010330606657000000031485201702042017010509000
80010330606657000000031485201702042017010509010
80010314284964000000006090201702042017010509000
80010314284964000000006090201702042017010509010
80010304573045000000006090201702042017010509000
80010304573045000000006090201702042017010509010
80010311893789000000020820201702042017010509000
80010311893789000000020820201702042017010509010
80010393208454000000006090201702042017010509000
80010393208454000000006090201702042017010509010
80010316689396000000031485201702042017010509000
80010316689396000000031485201702042017010509010
80010337818792000000031485201702042017010509000
80010337818792000000031485201702042017010509010
80010393588860000000006090201702042017010509000
80010393588860000000006090201702042017010509010
80010341205995000000031485201702042017010509000
80010341205995000000031485201702042017010509010
80010304512314000000006090201702042017010509000
80010304512314000000006090201702042017010509010
80010313265552000000031485201702042017010509000
80010313265552000000031485201702042017010509010
80010312633499000000031485201702042017010509000
80010312633499000000031485201702042017010509010
80010304566635000000006090201702042017010509000
80010304566635000000006090201702042017010509010
80010337540868000000031485201702042017010509000
80010337540868000000031485201702042017010509010
80010326034551000000039610201702042017010509000
80010326034551000000039610201702042017010509010
80010304272284000000006090201702042017010509000
80010304272284000000006090201702042017010509010
80010326567574000000031485201702042017010509000
80010326567574000000031485201702042017010509010
80010305898931000000012695201702042017010509000
80010305898931000000012695201702042017010509010
80010323551572000000010155201702042017010509000
80010323551572000000010155201702042017010509010
80010324664238000000031485201702042017010509000
80010324664238000000031485201702042017010509010
80010393225168000000006090201702042017010509000
80010393225168000000006090201702042017010509010
80010310955149000000031485201702042017010509000
80010310955149000000031485201702042017010509010
80010321678443000000043880201702042017010509000
80010321678443000000043880201702042017010509010
80010331931120000000031485201702042017010509000
80010331931120000000031485201702042017010509010
80010393246554000000006090201702042017010509000
80010393246554000000006090201702042017010509010
80010316032858000000039610201702042017010509000
80010316032858000000039610201702042017010509010
80010339212403000000039610201702042017010509000
80010339212403000000039610201702042017010509010
80010338267183000000018280201702042017010509000
80010338267183000000018280201702042017010509010
80010326240343000000031485201702042017010509000
80010326240343000000031485201702042017010509010
80010311677516000000031485201702042017010509000
80010311677516000000031485201702042017010509010
80010312645236000000012695201702042017010509000
80010312645236000000012695201702042017010509010
80010331928532000000010155201702042017010509000
80010331928532000000010155201702042017010509010
80010311597402000000035755201702042017010509000
80010311597402000000035755201702042017010509010
80010341313978000000031485201702042017010509000
80010341313978000000031485201702042017010509010
80010321569597000000031485201702042017010509000
80010321569597000000031485201702042017010509010
80010312277010000000012695201702042017010509000
80010312277010000000012695201702042017010509010
80010312439699000000043880201702042017010509000
80010312439699000000043880201702042017010509010
80010304587007000000006090201702042017010509000
80010304587007000000006090201702042017010509010
80010326658385000000031485201702042017010509000
80010326658385000000031485201702042017010509010
80010305619992000000006090201702042017010509000
80010305619992000000006090201702042017010509010
80010304580939000000010155201702042017010509000
80010304580939000000010155201702042017010509010
80010317928260000000031485201702042017010509000
80010317928260000000031485201702042017010509010
80010322502364000000031485201702042017010509000
80010322502364000000031485201702042017010509010
80010331133427000000031485201702042017010509000
80010331133427000000031485201702042017010509010
80010308257706000000006090201702042017010509000
80010308257706000000006090201702042017010509010
80010304576016000000006090201702042017010509000
80010304576016000000006090201702042017010509010
80010330314636000000039610201702042017010509000
80010330314636000000039610201702042017010509010
80010330007710000000039610201702042017010509000
80010330007710000000039610201702042017010509010
80010332321182000000031485201702042017010509000
80010332321182000000031485201702042017010509010
80010332515292000000039610201702042017010509000
80010332515292000000039610201702042017010509010
80010305624284000000006090201702042017010509000
80010305624284000000006090201702042017010509010
80010311353074000000012695201702042017010509000
80010311353074000000012695201702042017010509010
80010310881928000000031485201702042017010509000
80010310881928000000031485201702042017010509010
80010314555297000000043880201702042017010509000
80010314555297000000043880201702042017010509010
80010333895246000000031485201702042017010509000
80010333895246000000031485201702042017010509010
80010324265175000000039610201702042017010509000
80010324265175000000039610201702042017010509010
80010312702776000000031485201702042017010509000
80010312702776000000031485201702042017010509010
80010304316250000000006090201702042017010509000
80010304316250000000006090201702042017010509010
80010336616341000000031485201702042017010509000
80010336616341000000031485201702042017010509010
80010333775700000000043880201702042017010509000
80010333775700000000043880201702042017010509010
80010314817199000000031485201702042017010509000
80010314817199000000031485201702042017010509010
80010329654287000000031485201702042017010509000
80010329654287000000031485201702042017010509010
80010392030008000000031485201702042017010509000
80010392030008000000031485201702042017010509010
80010330172520000000031485201702042017010509000
80010330172520000000031485201702042017010509010
80010335377514000000031485201702042017010509000
80010335377514000000031485201702042017010509010
80010314642653000000031485201702042017010509000
80010314642653000000031485201702042017010509010
80010316607103000000039610201701222017010509000
80010316607103000000039610201701222017010509010
80010395289232000000031485201702042017010509000
80010395289232000000031485201702042017010509010
80010322060577000000031485201702042017010509000
80010322060577000000031485201702042017010509010
80010308441006000000012695201702042017010509000
80010308441006000000012695201702042017010509010
80010394024074000000018280201702042017010509000
80010394024074000000018280201702042017010509010
80010318518845000000039610201702042017010509000
80010318518845000000039610201702042017010509010
80010341393556000000031485201702042017010509000
80010341393556000000031485201702042017010509010
80010312709601000000043880201702042017010509000
80010312709601000000043880201702042017010509010
80010333024120000000010155201702042017010509000
80010333024120000000010155201702042017010509010
80010393314511000000012695201702042017010509000
80010393314511000000012695201702042017010509010
80010330314190000000039610201702042017010509000
80010330314190000000039610201702042017010509010
80010334436764000000031485201702042017010509000
80010334436764000000031485201702042017010509010
80010313315540000000031485201702042017010509000
80010313315540000000031485201702042017010509010
80010320059532000000031485201702042017010509000
80010320059532000000031485201702042017010509010
20170012905478000000242005000005132017010509000
20170012905478000000242005000005132017010509010
20170013002641000000061444201701192017010509000
20170013002641000000061444201701192017010509010
20170013002637000000037070201701192017010509000
20170013002637000000037070201701192017010509010
20170014323043000000027378201701192017010509000
20170014323043000000027378201701192017010509010
20160123551202000000062246000000012017010509000
20160123551202000000062246000000012017010509010
20160123530106000000099824000000012017010509000
20160123530106000000099824000000012017010509010
20170013606445000000023726201701192017010509000
20170013606445000000023726201701192017010509010
20170013606430000000023726201701192017010509000
20170013606430000000023726201701192017010509010
20170012209882000000028191201701192017010509000
20170012209882000000028191201701192017010509010
20160062017474000000076752000000042017010509000
20160062017474000000076752000000042017010509010
20160122017474000000021515201701152017010509000
20160122017474000000021515201701152017010509010
20160112017474000000017564201701152017010509000
20160112017474000000017564201701152017010509010
20160042905645000000018770201701152017010509000
20160042905645000000018770201701152017010509010
20160032905645000000018942201701152017010509000
20160032905645000000018942201701152017010509010
20160052905645000000018598201701152017010509000
20160052905645000000018598201701152017010509010
20170012112690000000023726201701192017010509000
20170012112690000000023726201701192017010509010
20170012115719000000034297201701192017010509000
20170012115719000000034297201701192017010509010
20170012143373000000023726201701192017010509000
20170012143373000000023726201701192017010509010
20170012112375000000024009201701192017010509000
20170012112375000000024009201701192017010509010
20160072930186000000041202201701152017010509000
20160072930186000000041202201701152017010509010
20160082930186000000040814201701152017010509000
20160082930186000000040814201701152017010509010
20160092930186000000040425201701152017010509000
20160092930186000000040425201701152017010509010
20160102930186000000040036201701152017010509000
20160102930186000000040036201701152017010509010
20160112930186000000039647201701152017010509000
20160112930186000000039647201701152017010509010
20160122930186000000048506201701152017010509000
20160122930186000000048506201701152017010509010
20160122114344000000027823201701152017010509000
20160122114344000000027823201701152017010509010
20160112114344000000022711201701152017010509000
20160112114344000000022711201701152017010509010
20170012927590000000023726201701192017010509000
20170012927590000000023726201701192017010509010
20170012915824000000026540201701192017010509000
20170012915824000000026540201701192017010509010
20170012211893000000023726201701192017010509000
20170012211893000000023726201701192017010509010
20170012211855000000023726201701192017010509000
20170012211855000000023726201701192017010509010
20160102925836000000034746201701152017010509000
20160102925836000000034746201701152017010509010
20160112925836000000034409201701152017010509000
20160112925836000000034409201701152017010509010
20160122925836000000042109201701152017010509000
20160122925836000000042109201701152017010509010
20170012204713000000023726201701192017010509000
20170012204713000000023726201701192017010509010
20160122204713000000021515201701152017010509000
20160122204713000000021515201701152017010509010
20170013621103000000023726201701192017010509000
20170013621103000000023726201701192017010509010
20170012934970000000023726201701192017010509000
20170012934970000000023726201701192017010509010
20170012934985000000023726201701192017010509000
20170012934985000000023726201701192017010509010
20170012901654000000023726201701192017010509000
20170012901654000000023726201701192017010509010
20170013633892000000141849201701192017010509000
20170013633892000000141849201701192017010509010
20160123003447000000021515201701152017010509000
20160123003447000000021515201701152017010509010
20160037121727000000078661201701132017010509000
20160037121727000000078661201701132017010509010
20160122928160000000097449201701152017010509000
20160122928160000000097449201701152017010509010
20170012926373000000055523201701192017010509000
20170012926373000000055523201701192017010509010
20160122005402000000029618201701142017010509000
20160122005402000000029618201701142017010509010
20170012029489000000023726201701192017010509000
20170012029489000000023726201701192017010509010
20170012910932000000025137201701192017010509000
20170012910932000000025137201701192017010509010
20170012107661000000023726201701192017010509000
20170012107661000000023726201701192017010509010
20160122112686000000021515201701152017010509000
20160122112686000000021515201701152017010509010
20170012033770000000023726201701192017010509000
20170012033770000000023726201701192017010509010
20170012033765000000023726201701192017010509000
20170012033765000000023726201701192017010509010
20170012144532000000023726201701192017010509000
20170012144532000000023726201701192017010509010
20170012144547000000023726201701192017010509000
20170012144547000000023726201701192017010509010
20170012144551000000023726201701192017010509000
20170012144551000000023726201701192017010509010
20170012144566000000023726201701192017010509000
20170012144566000000023726201701192017010509010
20170012144570000000023726201701192017010509000
20170012144570000000023726201701192017010509010
20170013033927000000024346000005022017010509000
20170013033927000000024346000005022017010509010
20170012114693000000023726201701192017010509000
20170012114693000000023726201701192017010509010
20160032147656000000108765000000012017010509000
20160032147656000000108765000000012017010509010
20170012147656000000023726201701192017010509000
20170012147656000000023726201701192017010509010
20160122005417000000029567201701152017010509000
20160122005417000000029567201701152017010509010
20160122103795000000021515201701152017010509000
20160122103795000000021515201701152017010509010
20170012201480000000026279201701192017010509000
20170012201480000000026279201701192017010509010
20160122000620000000030649201701152017010509000
20160122000620000000030649201701152017010509010
20170013600050000000027723201701192017010509000
20170013600050000000027723201701192017010509010
20160122146540000000021515201701152017010509000
20160122146540000000021515201701152017010509010
20160122146554000000021515201701152017010509000
20160122146554000000021515201701152017010509010
20160051535262000000039390201701152017010509000
20160051535262000000039390201701152017010509010
20160072928304000000096976000000022017010509000
20160072928304000000096976000000022017010509010
20160112905296000000020116201701152017010509000
20160112905296000000020116201701152017010509010
20160122905296000000024725201701152017010509000
20160122905296000000024725201701152017010509010
20160122110501000000021515201701152017010509000
20160122110501000000021515201701152017010509010
20160037126470000000057437201701132017010509000
20160037126470000000057437201701132017010509010
20170012934330000000023726201701192017010509000
20170012934330000000023726201701192017010509010
20170012927900000000023726201701192017010509000
20170012927900000000023726201701192017010509010
20160123030621000000022061201701152017010509000
20160123030621000000022061201701152017010509010
20170012011370000000029649201701192017010509000
20170012011370000000029649201701192017010509010
20160122011370000000027082201701152017010509000
20160122011370000000027082201701152017010509010
20160082011370000000022687201701152017010509000
20160082011370000000022687201701152017010509010
20170015205186000000028649201701192017010509000
20170015205186000000028649201701192017010509010
20170015245410000000028649201701192017010509000
20170015245410000000028649201701192017010509010
20160037119701000000109242201701132017010509000
20160037119701000000109242201701132017010509010
20170015202665000000077910201701192017010509000
20170015202665000000077910201701192017010509010
20160037125143000000047581201701132017010509000
20160037125143000000047581201701132017010509010
20160125202316000000043184201701152017010509000
20160125202316000000043184201701152017010509010
20170015202316000000047264201701192017010509000
20170015202316000000047264201701192017010509010
20170015226631000000048488201701192017010509000
20170015226631000000048488201701192017010509010
20170015226646000000032611201701192017010509000
20170015226646000000032611201701192017010509010
20170015211886000000228906201701192017010509000
20170015211886000000228906201701192017010509010
20120595255785000000018893000000022017010509000
20120595255785000000018893000000022017010509010
20160051490672000000039000201701122017010509000
20160051490672000000039000201701122017010509010
20160115256270000000022736201701152017010509000
20160115256270000000022736201701152017010509010
20160105256270000000022959201701152017010509000
20160105256270000000022959201701152017010509010
20160037028715000000040690201701132017010509000
20160037028715000000040690201701132017010509010
20160123335470000000091519201701152017010509000
20160123335470000000091519201701152017010509010
20160113335470000000074971201701152017010509000
20160113335470000000074971201701152017010509010
20160103335470000000075706201701152017010509000
20160103335470000000075706201701152017010509010
20160093335470000000076441201701152017010509000
20160093335470000000076441201701152017010509010
20160083335470000000077176201701152017010509000
20160083335470000000077176201701152017010509010
20160073335470000000077911201701152017010509000
20160073335470000000077911201701152017010509010
20160063335470000000078646201701152017010509000
20160063335470000000078646201701152017010509010
20160053335470000000079381201701152017010509000
20160053335470000000079381201701152017010509010
20160043335470000000080116201701152017010509000
20160043335470000000080116201701152017010509010
20160033335470000000080851201701152017010509000
20160033335470000000080851201701152017010509010
20160023335470000000081586201701152017010509000
20160023335470000000081586201701152017010509010
20160013335470000000063156201701152017010509000
20160013335470000000063156201701152017010509010
20150113335470000000064283201701152017010509000
20150113335470000000064283201701152017010509010
20170015208022000000070018201701192017010509000
20170015208022000000070018201701192017010509010
20170015208041000000152681201701192017010509000
20170015208041000000152681201701192017010509010
20170015202560000000048371201701192017010509000
20170015202560000000048371201701192017010509010
20170012812679000000049858201701192017010509000
20170012812679000000049858201701192017010509010
20170015247632000000028649201701192017010509000
20170015247632000000028649201701192017010509010
20170015203179000000048517201701192017010509000
20170015203179000000048517201701192017010509010
20160037115536000000107904201701132017010509000
20160037115536000000107904201701132017010509010
20160015254243000000017861201701152017010509000
20160015254243000000017861201701152017010509010
20160115254243000000021285201701152017010509000
20160115254243000000021285201701152017010509010
20160125254243000000026047201701152017010509000
20160125254243000000026047201701152017010509010
20170015251904000000032465201701192017010509000
20170015251904000000032465201701192017010509010
20160115270386000000021285201701152017010509000
20160115270386000000021285201701152017010509010
20160125270386000000026047201701152017010509000
20160125270386000000026047201701152017010509010
20160125100774000000036745201701152017010509000
20160125100774000000036745201701152017010509010
20160125270625000000026047201701152017010509000
20160125270625000000026047201701152017010509010
20160125270572000000026047201701152017010509000
20160125270572000000026047201701152017010509010
20170015203088000000197586201701192017010509000
20170015203088000000197586201701192017010509010
20170015210440000000040331201701192017010509000
20170015210440000000040331201701192017010509010
20160112800793000000048136201701152017010509000
20160112800793000000048136201701152017010509010
20170012800793000000064189201701192017010509000
20170012800793000000064189201701192017010509010
20160122800793000000058769201701152017010509000
20160122800793000000058769201701152017010509010
20160125268189000000026047201701152017010509000
20160125268189000000026047201701152017010509010
20160115203236000000029801201701152017010509000
20160115203236000000029801201701152017010509010
20160125203236000000036423201701152017010509000
20160125203236000000036423201701152017010509010
20160037115814000000062200201701132017010509000
20160037115814000000062200201701132017010509010
20160125107692000000027758201701152017010509000
20160125107692000000027758201701152017010509010
20170015251650000000034184201701192017010509000
20170015251650000000034184201701192017010509010
20170015245792000000028649201701192017010509000
20170015245792000000028649201701192017010509010
20160105208701000000051875201701152017010509000
20160105208701000000051875201701152017010509010
20160125208701000000062713201701152017010509000
20160125208701000000062713201701152017010509010
20170015208701000000068472201701192017010509000
20170015208701000000068472201701192017010509010
20160105129006000000086800201701152017010509000
20160105129006000000086800201701152017010509010
20160125129006000000104854201701152017010509000
20160125129006000000104854201701152017010509010
20170015129006000000113972201701192017010509000
20170015129006000000113972201701192017010509010
20170015269147000000028649201701192017010509000
20170015269147000000028649201701192017010509010
20160041568210000000045191201701152017010509000
20160041568210000000045191201701152017010509010
20160051568210000000044314201701152017010509000
20160051568210000000044314201701152017010509010
20160125160763000000026047201701152017010509000
20160125160763000000026047201701152017010509010
20160125257826000000026047201701152017010509000
20160125257826000000026047201701152017010509010
20160055259910000000022537201701152017010509000
20160055259910000000022537201701152017010509010
20160125259910000000026047201701152017010509000
20160125259910000000026047201701152017010509010
20170014505708000000204799201701192017010509000
20170014505708000000204799201701192017010509010
20170015210966000000066462201701192017010509000
20170015210966000000066462201701192017010509010
20170015210951000000028649201701192017010509000
20170015210951000000028649201701192017010509010
20160035209841000000200436000000072017010509000
20160035209841000000200436000000072017010509010
20150025250396000000019615201701152017010509000
20150025250396000000019615201701152017010509010
20150035250396000000019455201701152017010509000
20150035250396000000019455201701152017010509010
20150045250396000000019296201701152017010509000
20150045250396000000019296201701152017010509010
20150055250396000000019136201701152017010509000
20150055250396000000019136201701152017010509010
20150065250396000000018977201701152017010509000
20150065250396000000018977201701152017010509010
20150075250396000000018817201701152017010509000
20150075250396000000018817201701152017010509010
20150085250396000000018658201701152017010509000
20150085250396000000018658201701152017010509010
20150095250396000000018499201701152017010509000
20150095250396000000018499201701152017010509010
20150105250396000000018339201701152017010509000
20150105250396000000018339201701152017010509010
20150115250396000000018180201701152017010509000
20150115250396000000018180201701152017010509010
20150125250396000000018020201701152017010509000
20150125250396000000018020201701152017010509010
20160015250396000000017861201701152017010509000
20160015250396000000017861201701152017010509010
20160025250396000000023163201701152017010509000
20160025250396000000023163201701152017010509010
20160035250396000000022955201701152017010509000
20160035250396000000022955201701152017010509010
20160045250396000000022746201701152017010509000
20160045250396000000022746201701152017010509010
20160055250396000000022537201701152017010509000
20160055250396000000022537201701152017010509010
20160065250396000000022329201701152017010509000
20160065250396000000022329201701152017010509010
20160075250396000000022120201701152017010509000
20160075250396000000022120201701152017010509010
20160085250396000000021911201701152017010509000
20160085250396000000021911201701152017010509010
20160095250396000000021703201701152017010509000
20160095250396000000021703201701152017010509010
20160105250396000000021494201701152017010509000
20160105250396000000021494201701152017010509010
20160115250396000000021285201701152017010509000
20160115250396000000021285201701152017010509010
20160125250396000000026047201701152017010509000
20160125250396000000026047201701152017010509010
20170015121392000000144340201701192017010509000
20170015121392000000144340201701192017010509010
20170015104636000000055567201701192017010509000
20170015104636000000055567201701192017010509010
20160035225358000000022955201701152017010509000
20160035225358000000022955201701152017010509010
20160105225358000000021494201701152017010509000
20160105225358000000021494201701152017010509010
20160115225358000000021285201701152017010509000
20160115225358000000021285201701152017010509010
20160085225358000000021911201701152017010509000
20160085225358000000021911201701152017010509010
20170015225358000000028649201701192017010509000
20170015225358000000028649201701192017010509010
20170012406689000000115784201701192017010509000
20170012406689000000115784201701192017010509010
20170012406579000000112435201701192017010509000
20170012406579000000112435201701192017010509010
20170012417037000000057632201701192017010509000
20170012417037000000057632201701192017010509010
20170012416997000000076512201701192017010509000
20170012416997000000076512201701192017010509010
20170012406674000000429723201701192017010509000
20170012406674000000429723201701192017010509010
20160037110135000000051377201701132017010509000
20160037110135000000051377201701132017010509010
20170013243533000000029377201701192017010509000
20170013243533000000029377201701192017010509010
20160123114750000000025881201701152017010509000
20160123114750000000025881201701152017010509010
20160123115464000000024641201701152017010509000
20160123115464000000024641201701152017010509010
20170013134462000000025817201701192017010509000
20170013134462000000025817201701192017010509010
20170013134458000000025817201701192017010509000
20170013134458000000025817201701192017010509010
20160124217464000000031232201701152017010509000
20160124217464000000031232201701152017010509010
20160023109898000000023938201701152017010509000
20160023109898000000023938201701152017010509010
20160043109898000000023507201701152017010509000
20160043109898000000023507201701152017010509010
20160073109898000000022860201701152017010509000
20160073109898000000022860201701152017010509010
20160083109898000000022644201701152017010509000
20160083109898000000022644201701152017010509010
20160093109898000000022429201701152017010509000
20160093109898000000022429201701152017010509010
20160103109898000000022213201701152017010509000
20160103109898000000022213201701152017010509010
20160123109898000000027001201701152017010509000
20160123109898000000027001201701152017010509010
20170013109898000000029594201701192017010509000
20170013109898000000029594201701192017010509010
20160122111637000000097262201701152017010509000
20160122111637000000097262201701152017010509010
20160037111256000000064480201701132017010509000
20160037111256000000064480201701132017010509010
20160027121603000000115019201701152017010509000
20160027121603000000115019201701152017010509010
20160037121603000000110595201701152017010509000
20160037121603000000110595201701152017010509010
20170012321497000000028773201701192017010509000
20170012321497000000028773201701192017010509010
20160122120900000000112285201701152017010509000
20160122120900000000112285201701152017010509010
20160122311853000000038560201701152017010509000
20160122311853000000038560201701152017010509010
20160022122573000000018395000005022017010509000
20160022122573000000018395000005022017010509010
20170012413342000000055304201701192017010509000
20170012413342000000055304201701192017010509010
20170012415326000000030047201701192017010509000
20170012415326000000030047201701192017010509010
20170012411335000000030426201701192017010509000
20170012411335000000030426201701192017010509010
20160037118802000000071061201701152017010509000
20160037118802000000071061201701152017010509010
20170013103340000000038848201701192017010509000
20170013103340000000038848201701192017010509010
20170013108341000000032362201701192017010509000
20170013108341000000032362201701192017010509010
20170012331092000000064056201701192017010509000
20170012331092000000064056201701192017010509010
20170013134917000000025817201701192017010509000
20170013134917000000025817201701192017010509010
20160123238011000000038005201701152017010509000
20160123238011000000038005201701152017010509010
20170012315218000000129909201701192017010509000
20170012315218000000129909201701192017010509010
20170013626708000000023726201701192017010509000
20170013626708000000023726201701192017010509010
20170013137935000000027865201701192017010509000
20170013137935000000027865201701192017010509010
20170014006904000000042312201701192017010509000
20170014006904000000042312201701192017010509010
20170014009205000000036340201701192017010509000
20170014009205000000036340201701192017010509010
20170012319687000000037658201701192017010509000
20170012319687000000037658201701192017010509010
20160042329005000000020458201701152017010509000
20160042329005000000020458201701152017010509010
20160037074762000000053633201701132017010509000
20160037074762000000053633201701132017010509010
20170013408642000000030339201701192017010509000
20170013408642000000030339201701192017010509010
20170012321516000000047409201701192017010509000
20170012321516000000047409201701192017010509010
20170013102582000000027822201701192017010509000
20170013102582000000027822201701192017010509010
20170012104658000000048002201701192017010509000
20170012104658000000048002201701192017010509010
20160122104658000000044082201701152017010509000
20160122104658000000044082201701152017010509010
20170012311045000000025817201701192017010509000
20170012311045000000025817201701192017010509010
20160094405771000000069416000000032017010509000
20160094405771000000069416000000032017010509010
20140292919485000000011010000000012017010509000
20140292919485000000011010000000012017010509010
20160063152062000000020083201701152017010509000
20160063152062000000020083201701152017010509010
20160073152062000000019895201701152017010509000
20160073152062000000019895201701152017010509010
20160083152062000000019707201701152017010509000
20160083152062000000019707201701152017010509010
20160093152062000000019520201701152017010509000
20160093152062000000019520201701152017010509010
20160103152062000000019332201701152017010509000
20160103152062000000019332201701152017010509010
20160113152062000000019144201701152017010509000
20160113152062000000019144201701152017010509010
20160123152062000000023431201701152017010509000
20160123152062000000023431201701152017010509010
20170013152062000000263333000005132017010509000
20170013152062000000263333000005132017010509010
20170012146717000000030062201701192017010509000
20170012146717000000030062201701192017010509010
20170012346288000000073081201701192017010509000
20170012346288000000073081201701192017010509010
20160037030851000000045322201701152017010509000
20160037030851000000045322201701152017010509010
20170013806331000000644334000005132017010509000
20170013806331000000644334000005132017010509010
20170012920136000000044886201701192017010509000
20170012920136000000044886201701192017010509010
20160122920136000000041018201701152017010509000
20160122920136000000041018201701152017010509010
20160112920136000000033551201701152017010509000
20160112920136000000033551201701152017010509010
20160102920136000000033880201701152017010509000
20160102920136000000033880201701152017010509010
20160092920136000000034209201701152017010509000
20160092920136000000034209201701152017010509010
20160082920136000000034538201701152017010509000
20160082920136000000034538201701152017010509010
20160062920136000000035196201701152017010509000
20160062920136000000035196201701152017010509010
20160052920136000000035524201701152017010509000
20160052920136000000035524201701152017010509010
20160042920136000000035853201701152017010509000
20160042920136000000035853201701152017010509010
20160022920136000000036511201701152017010509000
20160022920136000000036511201701152017010509010
20160012920136000000028195201701152017010509000
20160012920136000000028195201701152017010509010
20160012920121000000016672201701152017010509000
20160012920121000000016672201701152017010509010
20160022920121000000021778201701152017010509000
20160022920121000000021778201701152017010509010
20160042920121000000021386201701152017010509000
20160042920121000000021386201701152017010509010
20160052920121000000021190201701152017010509000
20160052920121000000021190201701152017010509010
20160062920121000000020993201701152017010509000
20160062920121000000020993201701152017010509010
20160082920121000000020601201701152017010509000
20160082920121000000020601201701152017010509010
20160092920121000000020405201701152017010509000
20160092920121000000020405201701152017010509010
20160102920121000000020209201701152017010509000
20160102920121000000020209201701152017010509010
20170012920121000000026967201701192017010509000
20170012920121000000026967201701192017010509010
20160122920121000000024598201701152017010509000
20160122920121000000024598201701152017010509010
20160112920121000000020012201701152017010509000
20160112920121000000020012201701152017010509010
20170012409400000000031358201701192017010509000
20170012409400000000031358201701192017010509010
20160037100041000000095246201701132017010509000
20160037100041000000095246201701132017010509010
20160027100041000000099056201701152017010509000
20160027100041000000099056201701152017010509010
20170013117099000000025817201701192017010509000
20170013117099000000025817201701192017010509010
20160012355934000000016060201701152017010509000
20160012355934000000016060201701152017010509010
20160022355934000000020834201701152017010509000
20160022355934000000020834201701152017010509010
20160062355934000000020083201701152017010509000
20160062355934000000020083201701152017010509010
20160082355934000000019707201701152017010509000
20160082355934000000019707201701152017010509010
20160102355934000000019332201701152017010509000
20160102355934000000019332201701152017010509010
20150102355934000000016490201701152017010509000
20150102355934000000016490201701152017010509010
20150122355934000000016203201701152017010509000
20150122355934000000016203201701152017010509010
20160122349492000000023431201701152017010509000
20160122349492000000023431201701152017010509010
20170013142710000000025817201701192017010509000
20170013142710000000025817201701192017010509010
20160122938521000000021515201701152017010509000
20160122938521000000021515201701152017010509010
20170013102267000000340456000005132017010509000
20170013102267000000340456000005132017010509010
20170012513393000000051763000005022017010509000
20170012513393000000051763000005022017010509010
20160122323208000000023431201701152017010509000
20160122323208000000023431201701152017010509010
20160122312534000000033083201701152017010509000
20160122312534000000033083201701152017010509010
20160123133595000000024202201701152017010509000
20160123133595000000024202201701152017010509010
20160113133595000000019710201701152017010509000
20160113133595000000019710201701152017010509010
20170012347466000000025817201701192017010509000
20170012347466000000025817201701192017010509010
20160022425429000000089151000000022017010509000
20160022425429000000089151000000022017010509010
20160022409305000000185519000000062017010509000
20160022409305000000185519000000062017010509010
20160022410817000000229555000000042017010509000
20160022410817000000229555000000042017010509010
20160022425433000000086169000000032017010509000
20160022425433000000086169000000032017010509010
20160122417520000000026047201701152017010509000
20160122417520000000026047201701152017010509010
20170012320558000000034891201701192017010509000
20170012320558000000034891201701192017010509010
20160123102090000000023518201701152017010509000
20160123102090000000023518201701152017010509010
20160113102090000000019188201701152017010509000
20160113102090000000019188201701152017010509010
20160103102090000000019376201701152017010509000
20160103102090000000019376201701152017010509010
20160093102090000000019564201701152017010509000
20160093102090000000019564201701152017010509010
20170013664450000000023726201701192017010509000
20170013664450000000023726201701192017010509010
20160123664450000000021515201701152017010509000
20160123664450000000021515201701152017010509010
20170012330885000000047647201701192017010509000
20170012330885000000047647201701192017010509010
20170012140169000000096430201701192017010509000
20170012140169000000096430201701192017010509010
20160123208430000000118164201701152017010509000
20160123208430000000118164201701152017010509010
20170012341248000000057829201701192017010509000
20170012341248000000057829201701192017010509010
20170012355590000000046251201701192017010509000
20170012355590000000046251201701192017010509010
20160122355590000000042248201701152017010509000
20160122355590000000042248201701152017010509010
20170012326829000000030027201701192017010509000
20170012326829000000030027201701192017010509010
20160122326829000000027401201701152017010509000
20160122326829000000027401201701152017010509010
20170013104145000000025817201701192017010509000
20170013104145000000025817201701192017010509010
20170013109716000000052967201701192017010509000
20170013109716000000052967201701192017010509010
20170012331308000000032167201701192017010509000
20170012331308000000032167201701192017010509010
20170012328233000000465671000005132017010509000
20170012328233000000465671000005132017010509010
20170012421753000000292220000005132017010509000
20170012421753000000292220000005132017010509010
20170012421749000000292220000005132017010509000
20170012421749000000292220000005132017010509010
20170012328908000001063625000005132017010509000
20170012328908000001063625000005132017010509010
20170012328267000000263333000005132017010509000
20170012328267000000263333000005132017010509010
20170016668817000000032203201701192017010509000
20170016668817000000032203201701192017010509010
20170016640132000000028649201701192017010509000
20170016640132000000028649201701192017010509010
20160126650398000000026047201701152017010509000
20160126650398000000026047201701152017010509010
20170016677397000000028649201701192017010509000
20170016677397000000028649201701192017010509010
20160037075848000000050075201701152017010509000
20160037075848000000050075201701152017010509010
20160027075848000000052078201701152017010509000
20160027075848000000052078201701152017010509010
20160017075848000000053080201701152017010509000
20160017075848000000053080201701152017010509010
20160126508868000000045248201701152017010509000
20160126508868000000045248201701152017010509010
20170016416630000000042166201701192017010509000
20170016416630000000042166201701192017010509010
20170016436759000000028649201701192017010509000
20170016436759000000028649201701192017010509010
20170016436778000000028649201701192017010509000
20170016436778000000028649201701192017010509010
20170016436744000000028649201701192017010509000
20170016436744000000028649201701192017010509010
20170016433157000000028649201701192017010509000
20170016433157000000028649201701192017010509010
20170016673698000000032465201701192017010509000
20170016673698000000032465201701192017010509010
20170016673683000000034563201701192017010509000
20170016673683000000034563201701192017010509010
20170016448251000000028649201701192017010509000
20170016448251000000028649201701192017010509010
20170016413812000000064918201701192017010509000
20170016413812000000064918201701192017010509010
20160126504748000000048879201701152017010509000
20160126504748000000048879201701152017010509010
20160086230132000000018081201701152017010509000
20160086230132000000018081201701152017010509010
20160116230132000000017564201701152017010509000
20160116230132000000017564201701152017010509010
20170016627921000000050935201701192017010509000
20170016627921000000050935201701192017010509010
20160037079400000000046508201701152017010509000
20160037079400000000046508201701152017010509010
20160027079400000000048368201701152017010509000
20160027079400000000048368201701152017010509010
20170016663978000000035713201701192017010509000
20170016663978000000035713201701192017010509010
20170016663982000000035058201701192017010509000
20170016663982000000035058201701192017010509010
20160086663997000000027999000000012017010509000
20160086663997000000027999000000012017010509010
20170016659251000000028649201701192017010509000
20170016659251000000028649201701192017010509010
20160126228360000000021515201701152017010509000
20160126228360000000021515201701152017010509010
20170016514434000000033951000005022017010509000
20170016514434000000033951000005022017010509010
20170016622293000000035844201701192017010509000
20170016622293000000035844201701192017010509010
20170016675485000000153126201701192017010509000
20170016675485000000153126201701192017010509010
20170016675303000000511604201701192017010509000
20170016675303000000511604201701192017010509010
20170016675299000000079377201701192017010509000
20170016675299000000079377201701192017010509010
20160076439978000000022120201701152017010509000
20160076439978000000022120201701152017010509010
20160126440781000000026047201701152017010509000
20160126440781000000026047201701152017010509010
20160126453276000000026047201701152017010509000
20160126453276000000026047201701152017010509010
20160116453276000000021285201701152017010509000
20160116453276000000021285201701152017010509010
20160106453276000000021494201701152017010509000
20160106453276000000021494201701152017010509010
20160096453276000000021703201701152017010509000
20160096453276000000021703201701152017010509010
20160086453276000000021911201701152017010509000
20160086453276000000021911201701152017010509010
20160016608081000000015473201701152017010509000
20160016608081000000015473201701152017010509010
20160106608081000000068032201701152017010509000
20160106608081000000068032201701152017010509010
20170016611070000000052945201701192017010509000
20170016611070000000052945201701192017010509010
20170016429469000000028649201701192017010509000
20170016429469000000028649201701192017010509010
20170016425520000000037505201701192017010509000
20170016425520000000037505201701192017010509010
20170016672031000000028649201701192017010509000
20170016672031000000028649201701192017010509010
20140036676386000000016438201701152017010509000
20140036676386000000016438201701152017010509010
20140046676386000000016315201701152017010509000
20140046676386000000016315201701152017010509010
20140056676386000000016192201701152017010509000
20140056676386000000016192201701152017010509010
20140066676386000000016070201701152017010509000
20140066676386000000016070201701152017010509010
20150016676352000000019774201701152017010509000
20150016676352000000019774201701152017010509010
20150026676352000000019615201701152017010509000
20150026676352000000019615201701152017010509010
20150036676352000000019455201701152017010509000
20150036676352000000019455201701152017010509010
20150046676352000000019296201701152017010509000
20150046676352000000019296201701152017010509010
20150056676352000000019136201701152017010509000
20150056676352000000019136201701152017010509010
20170016666738000000032465201701192017010509000
20170016666738000000032465201701192017010509010
20170016620783000000038379201701192017010509000
20170016620783000000038379201701192017010509010
20170016412888000000038950201701192017010509000
20170016412888000000038950201701192017010509010
20160126412888000000035549201701152017010509000
20160126412888000000035549201701152017010509010
20160037108333000000060294201701132017010509000
20160037108333000000060294201701132017010509010
20160126229553000000021515201701152017010509000
20160126229553000000021515201701152017010509010
20170016609480000000031708201701192017010509000
20170016609480000000031708201701192017010509010
20160106506540000000031338201701152017010509000
20160106506540000000031338201701152017010509010
20170016605580000000114995201701192017010509000
20170016605580000000114995201701192017010509010
20160126232690000000055707201701152017010509000
20160126232690000000055707201701152017010509010
20160126616330000000046911201701152017010509000
20160126616330000000046911201701152017010509010
20170016503407000000065034201701192017010509000
20170016503407000000065034201701192017010509010
20170016614270000000076017201701192017010509000
20170016614270000000076017201701192017010509010
20160116234745000000017564201701152017010509000
20160116234745000000017564201701152017010509010
20160106234745000000017737201701152017010509000
20160106234745000000017737201701152017010509010
20160037094973000000071061201701132017010509000
20160037094973000000071061201701132017010509010
20170016449129000000032116201701192017010509000
20170016449129000000032116201701192017010509010
20170016512006000000043681201701192017010509000
20170016512006000000043681201701192017010509010
20170016643165000000033718201701192017010509000
20170016643165000000033718201701192017010509010
20170016424835000000059412201701192017010509000
20170016424835000000059412201701192017010509010
20170016226205000000023726201701192017010509000
20170016226205000000023726201701192017010509010
20170016226190000000023726201701192017010509000
20170016226190000000023726201701192017010509010
20170016231397000000023726201701192017010509000
20170016231397000000023726201701192017010509010
20170016231435000000023726201701192017010509000
20170016231435000000023726201701192017010509010
20170016231401000000023726201701192017010509000
20170016231401000000023726201701192017010509010
20170016231454000000023726201701192017010509000
20170016231454000000023726201701192017010509010
20170016651868000000028649201701192017010509000
20170016651868000000028649201701192017010509010
20170016650967000000028649201701192017010509000
20170016650967000000028649201701192017010509010
20160126608870000000026047201701152017010509000
20160126608870000000026047201701152017010509010
20170016608870000000028649201701192017010509000
20170016608870000000028649201701192017010509010
20170016639003000000049858201701192017010509000
20170016639003000000049858201701192017010509010
20160076641660000000038437201701152017010509000
20160076641660000000038437201701152017010509010
20160086641660000000038074201701152017010509000
20160086641660000000038074201701152017010509010
20160096641660000000037711201701152017010509000
20160096641660000000037711201701152017010509010
20160106641660000000037349201701152017010509000
20160106641660000000037349201701152017010509010
20160116641660000000036986201701152017010509000
20160116641660000000036986201701152017010509010
20160126641660000000045210201701152017010509000
20160126641660000000045210201701152017010509010
20170016641660000000049433201701192017010509000
20170016641660000000049433201701192017010509010
20160126508117000000145596201701152017010509000
20160126508117000000145596201701152017010509010
20160126505046000000039025201701152017010509000
20160126505046000000039025201701152017010509010
20170016614160000000057402201701192017010509000
20170016614160000000057402201701192017010509010
20170016615109000000028649201701192017010509000
20170016615109000000028649201701192017010509010
20170016604928000000079377201701192017010509000
20170016604928000000079377201701192017010509010
20170016619893000000043493201701192017010509000
20170016619893000000043493201701192017010509010
20160126319334000000026465201701152017010509000
20160126319334000000026465201701152017010509010
20170016440633000000036853201701192017010509000
20170016440633000000036853201701192017010509010
20170016409259000000030805201701192017010509000
20170016409259000000030805201701192017010509010
20160046657919000000022746201701142017010509000
20160046657919000000022746201701142017010509010
20160046658480000000022746201701142017010509000
20160046658480000000022746201701142017010509010
20170016412050000000008514000005022017010509000
20170016412050000000008514000005022017010509010
20160016452781000000017861201701152017010509000
20160016452781000000017861201701152017010509010
20160026452781000000023163201701152017010509000
20160026452781000000023163201701152017010509010
20160036452781000000022955201701152017010509000
20160036452781000000022955201701152017010509010
20160046452781000000022746201701152017010509000
20160046452781000000022746201701152017010509010
20160056452781000000022537201701152017010509000
20160056452781000000022537201701152017010509010
20160076452781000000022120201701152017010509000
20160076452781000000022120201701152017010509010
20160106452781000000021494201701152017010509000
20160106452781000000021494201701152017010509010
20160126452781000000026047201701152017010509000
20160126452781000000026047201701152017010509010
20170016626117000000045691201701192017010509000
20170016626117000000045691201701192017010509010
20160126505118000000066206201701152017010509000
20160126505118000000066206201701152017010509010
20160126609403000000083093201701152017010509000
20160126609403000000083093201701152017010509010
20170016532565000000028649201701192017010509000
20170016532565000000028649201701192017010509010
20160126517486000000201922201701152017010509000
20160126517486000000201922201701152017010509010
20160116517486000000165536201701152017010509000
20160116517486000000165536201701152017010509010
20170013903421000000042574201701192017010509000
20170013903421000000042574201701192017010509010
20160124028787000000026927201701152017010509000
20160124028787000000026927201701152017010509010
20170014028787000000029610201701192017010509000
20170014028787000000029610201701192017010509010
20160123913505000000033446201701152017010509000
20160123913505000000033446201701152017010509010
20160123153437000000023431201701152017010509000
20160123153437000000023431201701152017010509010
20160122331350000000124201201701152017010509000
20160122331350000000124201201701152017010509010
20170012500067000000048284201701192017010509000
20170012500067000000048284201701192017010509010
20160123925596000000026047201701152017010509000
20160123925596000000026047201701152017010509010
20160103925596000000021494201701152017010509000
20160103925596000000021494201701152017010509010
20160113925596000000021285201701152017010509000
20160113925596000000021285201701152017010509010
20170014213344000000033918201701192017010509000
20170014213344000000033918201701192017010509010
20170014247504000000023726201701192017010509000
20170014247504000000023726201701192017010509010
20170014247490000000040628201701192017010509000
20170014247490000000040628201701192017010509010
20170013906492000000055537201701192017010509000
20170013906492000000055537201701192017010509010
20170013904050000000040593201701192017010509000
20170013904050000000040593201701192017010509010
20160124069270000000045581201701152017010509000
20160124069270000000045581201701152017010509010
20170014069270000000049858201701192017010509000
20170014069270000000049858201701192017010509010
20160122004540000000023679201701152017010509000
20160122004540000000023679201701152017010509010
20160123924456000000026047201701152017010509000
20160123924456000000026047201701152017010509010
20170014032604000000028649201701192017010509000
20170014032604000000028649201701192017010509010
20170014100957000000035233201701192017010509000
20170014100957000000035233201701192017010509010
20170013910142000000040127201701192017010509000
20170013910142000000040127201701192017010509010
20170013900862000000049858201701192017010509000
20170013900862000000049858201701192017010509010
20170014067813000000028649201701192017010509000
20170014067813000000028649201701192017010509010
20170014053749000000028649201701192017010509000
20170014053749000000028649201701192017010509010
20160124002177000000050533201701152017010509000
20160124002177000000050533201701152017010509010
20170014002177000000055246201701192017010509000
20170014002177000000055246201701192017010509010
20170014004940000000083620201701192017010509000
20170014004940000000083620201701192017010509010
20170014037113000000029465201701192017010509000
20170014037113000000029465201701192017010509010
20170014037109000000029435201701192017010509000
20170014037109000000029435201701192017010509010
20160124037109000000026764201701152017010509000
20160124037109000000026764201701152017010509010
20160044037109000000023378201701152017010509000
20160044037109000000023378201701152017010509010
20160124011709000000046483201701152017010509000
20160124011709000000046483201701152017010509010
20160073662500000000024696000000012017010509000
20160073662500000000024696000000012017010509010
20160123662500000000021515201701152017010509000
20160123662500000000021515201701152017010509010
20160123141126000000023431201701152017010509000
20160123141126000000023431201701152017010509010
20170014020695000000043739201701192017010509000
20170014020695000000043739201701192017010509010
20170014005176000000039457201701192017010509000
20170014005176000000039457201701192017010509010
20150033819304000000019455201701152017010509000
20150033819304000000019455201701152017010509010
20150043819304000000019296201701152017010509000
20150043819304000000019296201701152017010509010
20150053819304000000019136201701152017010509000
20150053819304000000019136201701152017010509010
20150063819304000000018977201701152017010509000
20150063819304000000018977201701152017010509010
20150073819304000000018817201701152017010509000
20150073819304000000018817201701152017010509010
20150083819304000000018658201701152017010509000
20150083819304000000018658201701152017010509010
20150093819304000000018499201701152017010509000
20150093819304000000018499201701152017010509010
20150103819304000000018339201701152017010509000
20150103819304000000018339201701152017010509010
20150113819304000000018180201701152017010509000
20150113819304000000018180201701152017010509010
20150123819304000000018020201701152017010509000
20150123819304000000018020201701152017010509010
20170013917917000000047118201701192017010509000
20170013917917000000047118201701192017010509010
20170014060929000000037068201701192017010509000
20170014060929000000037068201701192017010509010
20160041551496000000140595201701152017010509000
20160041551496000000140595201701152017010509010
20160051551496000000137865201701152017010509000
20160051551496000000137865201701152017010509010
20160072424418000000038774201701152017010509000
20160072424418000000038774201701152017010509010
20160092424418000000038042201701152017010509000
20160092424418000000038042201701152017010509010
20160122424418000000045581201701152017010509000
20160122424418000000045581201701152017010509010
20170134002181000000350454000005022017010509000
20170134002181000000350454000005022017010509010
20170013913012000000676698000005022017010509000
20170013913012000000676698000005022017010509010
20170014037902000000292220000005132017010509000
20170014037902000000292220000005132017010509010
20160084037902000000021911201701152017010509000
20160084037902000000021911201701152017010509010
20160094037902000000021703201701152017010509000
20160094037902000000021703201701152017010509010
20160104037902000000021494201701152017010509000
20160104037902000000021494201701152017010509010
20160114037902000000021285201701152017010509000
20160114037902000000021285201701152017010509010
20160124037902000000026047201701152017010509000
20160124037902000000026047201701152017010509010
20170014052742000000028649201701192017010509000
20170014052742000000028649201701192017010509010
20170014044972000000272507201701192017010509000
20170014044972000000272507201701192017010509010
20170014009277000000030309201701192017010509000
20170014009277000000030309201701192017010509010
20170014017525000000076658201701192017010509000
20170014017525000000076658201701192017010509010
20170014029286000000070848201701192017010509000
20170014029286000000070848201701192017010509010
20170014055627000000049858201701192017010509000
20170014055627000000049858201701192017010509010
20170014037955000000028649201701192017010509000
20170014037955000000028649201701192017010509010
20170014005362000000051372201701192017010509000
20170014005362000000051372201701192017010509010
20170014049056000000028649201701192017010509000
20170014049056000000028649201701192017010509010
20170014042707000000034009201701192017010509000
20170014042707000000034009201701192017010509010
20170014042798000000034009201701192017010509000
20170014042798000000034009201701192017010509010
20170014042779000000034009201701192017010509000
20170014042779000000034009201701192017010509010
20170014032054000000030892201701192017010509000
20170014032054000000030892201701192017010509010
20170014059125000000035713201701192017010509000
20170014059125000000035713201701192017010509010
20170013923479000000071880201701192017010509000
20170013923479000000071880201701192017010509010
20170013923483000000028649201701192017010509000
20170013923483000000028649201701192017010509010
20160123920336000000061855201701152017010509000
20160123920336000000061855201701152017010509010
20170013904906000000044293201701192017010509000
20170013904906000000044293201701192017010509010
20170014000140000000049420201701192017010509000
20170014000140000000049420201701192017010509010
20160037097859000000111934201701152017010509000
20160037097859000000111934201701152017010509010
20160027103838000000050700201701132017010509000
20160027103838000000050700201701132017010509010
20160037103838000000050700201701132017010509000
20160037103838000000050700201701132017010509010
20160123923961000000035511201701152017010509000
20160123923961000000035511201701152017010509010
20170014062989000000028649201701192017010509000
20170014062989000000028649201701192017010509010
20170014068293000000029494201701192017010509000
20170014068293000000029494201701192017010509010
20160014041222000000007923000005022017010509000
20160014041222000000007923000005022017010509010
20170024041222000000007923000005022017010509000
20170024041222000000007923000005022017010509010
20160123905219000000043719201701152017010509000
20160123905219000000043719201701152017010509010
20170013657649000000023726201701192017010509000
20170013657649000000023726201701192017010509010
20170014006976000000073249201701192017010509000
20170014006976000000073249201701192017010509010
20170014058444000000059791201701192017010509000
20170014058444000000059791201701192017010509010
20170013907795000000051896201701192017010509000
20170013907795000000051896201701192017010509010
20160124008471000000063519201701152017010509000
20160124008471000000063519201701152017010509010
20170014003719000000048662201701192017010509000
20170014003719000000048662201701192017010509010
20170013915531000000037680201701192017010509000
20170013915531000000037680201701192017010509010
20170013140244000000263333000005132017010509000
20170013140244000000263333000005132017010509010
20170013647656000000242005000005132017010509000
20170013647656000000242005000005132017010509010
20160123647656000000021515201701152017010509000
20160123647656000000021515201701152017010509010
20160123140244000000023431201701152017010509000
20160123140244000000023431201701152017010509010
20160125272628000000026047201701152017010509000
20160125272628000000026047201701152017010509010
20170015272628000000028649201701192017010509000
20170015272628000000028649201701192017010509010
20150095272628000000018499201701152017010509000
20150095272628000000018499201701152017010509010
20170024000193000000139337000005022017010509000
20170024000193000000139337000005022017010509010
20170014000193000000068559201701192017010509000
20170014000193000000068559201701192017010509010
20160124049720000000026047201701152017010509000
20160124049720000000026047201701152017010509010
20170014049720000000028649201701192017010509000
20170014049720000000028649201701192017010509010
20170013919298000000032290201701192017010509000
20170013919298000000032290201701192017010509010
20170013142763000000025817201701192017010509000
20170013142763000000025817201701192017010509010
20120284035110000000004100000000012017010509000
20120284035110000000004100000000012017010509010
20120294035110000000004067000000012017010509000
20120294035110000000004067000000012017010509010
20120304035110000000004033000000012017010509000
20120304035110000000004033000000012017010509010
20120314035110000000004000000000012017010509000
20120314035110000000004000000000012017010509010
20120324035110000000003966000000012017010509000
20120324035110000000003966000000012017010509010
20120334035110000000003932000000012017010509000
20120334035110000000003932000000012017010509010
20120344035110000000003899000000012017010509000
20120344035110000000003899000000012017010509010
20120354035110000000003865000000012017010509000
20120354035110000000003865000000012017010509010
20120364035110000000003832000000012017010509000
20120364035110000000003832000000012017010509010
20120374035110000000003798000000012017010509000
20120374035110000000003798000000012017010509010
20120384035110000000003764000000012017010509000
20120384035110000000003764000000012017010509010
20120394035110000000003731000000012017010509000
20120394035110000000003731000000012017010509010
20120404035110000000003697000000012017010509000
20120404035110000000003697000000012017010509010
20120414035110000000003663000000012017010509000
20120414035110000000003663000000012017010509010
20120424035110000000003630000000012017010509000
20120424035110000000003630000000012017010509010
20120434035110000000003596000000012017010509000
20120434035110000000003596000000012017010509010
20120444035110000000003563000000012017010509000
20120444035110000000003563000000012017010509010
20120454035110000000003529000000012017010509000
20120454035110000000003529000000012017010509010
20120464035110000000003495000000012017010509000
20120464035110000000003495000000012017010509010
20120474035110000000003462000000012017010509000
20120474035110000000003462000000012017010509010
20120494035110000000003395000000012017010509000
20120494035110000000003395000000012017010509010
20120514035110000000003361000000012017010509000
20120514035110000000003361000000012017010509010
20120524035110000000003361000000012017010509000
20120524035110000000003361000000012017010509010
20120534035110000000003361000000012017010509000
20120534035110000000003361000000012017010509010
20120544035110000000003361000000012017010509000
20120544035110000000003361000000012017010509010
20120554035110000000003361000000012017010509000
20120554035110000000003361000000012017010509010
20120564035110000000003361000000012017010509000
20120564035110000000003361000000012017010509010
20120574035110000000003361000000012017010509000
20120574035110000000003361000000012017010509010
20120584035110000000003361000000012017010509000
20120584035110000000003361000000012017010509010
20120594035110000000003361000000012017010509000
20120594035110000000003361000000012017010509010
20120604035110000000003361000000012017010509000
20120604035110000000003361000000012017010509010
20160054035015000000022537201701152017010509000
20160054035015000000022537201701152017010509010
20160064035015000000022329201701152017010509000
20160064035015000000022329201701152017010509010
20160074035015000000022120201701152017010509000
20160074035015000000022120201701152017010509010
20160084035015000000021911201701152017010509000
20160084035015000000021911201701152017010509010
20160094035015000000021703201701152017010509000
20160094035015000000021703201701152017010509010
20160104035015000000021494201701152017010509000
20160104035015000000021494201701152017010509010
20160114035015000000021285201701152017010509000
20160114035015000000021285201701152017010509010
20160124035015000000026047201701152017010509000
20160124035015000000026047201701152017010509010
20170014035015000000028649201701192017010509000
20170014035015000000028649201701192017010509010
20170034035110000000009827000005022017010509000
20170034035110000000009827000005022017010509010
20170024035110000000009827000005022017010509000
20170024035110000000009827000005022017010509010
20170022113644000000086081000005022017010509000
20170022113644000000086081000005022017010509010
20170013203754000000031358201701192017010509000
20170013203754000000031358201701192017010509010
20170012419910000000036544201701192017010509000
20170012419910000000036544201701192017010509010
20160037037275000000054108201701132017010509000
20160037037275000000054108201701132017010509010
20160046605719000000076428000000022017010509000
20160046605719000000076428000000022017010509010
