{
  "realm": "Catastro",
  "auth-server-url": "http://192.168.11.229:9080/auth",
  "ssl-required": "external",
  "resource": "catastro-web",
  "public-client": true,
  "use-resource-role-mappings": true
}